Project Report
…
## The following objects are masked from 'package:base':
## 
##     abbreviate, write

library(hrbrthemes)

## dataPath <- readline("Enter the path to the data set : ")
grc <- as_tibble(read.csv("../dataset/grc.csv",stringsAsFactors = FALSE))
# displaying first 10 rows of our data
print(grc)

## # A tibble: 9,835 x 8
##    items                     count total   rnd customer   age city   paymentType
##    <chr>                     <int> <int> <int> <chr>    <int> <chr>  <chr>      
##  1 citrus fruit,semi-finish~     4  1612     9 Maged       60 Hurgh~ Cash       
##  2 tropical fruit,yogurt,co~     3   509    12 Eman        23 Aswan  Cash       
##  3 whole milk                    1  2084     8 Rania       37 Dakah~ Cash       
##  4 pip fruit,yogurt,cream c~     4   788     8 Rania       37 Dakah~ Cash       
##  5 other vegetables,whole m~     4  1182    14 Magdy       36 Sohag  Cash       
##  6 whole milk,butter,yogurt~     5  1771     3 Ahmed       30 Giza   Credit     
##  7 rolls/buns                    1  2196     7 Huda        39 Gharb~ Cash       
##  8 other vegetables,UHT-mil~     5  1657     6 Walaa       29 Cairo  Cash       
##  9 pot plants                    1  2373     2 Mohamed     25 Alexa~ Credit     
## 10 whole milk,cereals            2   343     5 Shimaa      55 Port ~ Cash       
## # ... with 9,825 more rows
…
